{
    "id": "com.modxvm.xfw.libraries",
    "name": "XFW Libraries Module",
    "description": "XFW Libraries Module",

    "version": "XFW_VERSION",
    "dependencies": [],

    "url": "https://modxvm.com/",
    "url_update": "https://modxvm.com/",

    "wot_version_min": "WOT_VERSION",
    "wot_version_exactmatch": false,

    "features": []
}
